<?xml version="1.0" encoding="utf-8"?>
<!-- Generator: Adobe Illustrator 22.1.0, SVG Export Plug-In . SVG Version: 6.00 Build 0)  -->
<svg version="1.1" id="Layer_2" xmlns="http://www.w3.org/2000/svg" xmlns:xlink="http://www.w3.org/1999/xlink" x="0px" y="0px"
	 width="300px" height="250px" viewBox="0 0 300 250" style="enable-background:new 0 0 300 250;" xml:space="preserve">
<style type="text/css">
	.st0{fill:none;stroke:#000000;stroke-miterlimit:10;}
</style>
<g>
	<path class="st0" d="M264.9,62.5c0,0.2,0,0.3,0,0.4C264.9,62.9,264.9,62.7,264.9,62.5z"/>
	<path class="st0" d="M265,61.5c0,0.4,0,0.8,0,1.1C265,62.2,265,61.8,265,61.5z"/>
	<path class="st0" d="M265,61c0,0.1,0,0.3,0,0.4C265,61.3,265,61.2,265,61z"/>
	<path class="st0" d="M265,60.2C265,60.2,265,60.2,265,60.2c0,0.3,0,0.6,0,0.8C265,60.7,265,60.5,265,60.2z"/>
	<path class="st0" d="M264.9,63C264.9,63,264.9,63,264.9,63C264.9,63,264.9,63,264.9,63z"/>
	<path class="st0" d="M264.9,64C264.9,64,264.9,64,264.9,64L264.9,64z"/>
	<path class="st0" d="M264.9,63c0,0.1,0,0.3,0,0.4C264.9,63.3,264.9,63.1,264.9,63z"/>
	<path class="st0" d="M273.3,187.8l-22.7-0.5c0,0-0.1,0-0.1,0c-4.1-2.4-12.1-17.3-12.1-21.5c0-4.3-10.5-23.5-14.1-27.8
		c-3.3-4-11.6-22.1-12.7-24.6c-0.1-0.2,0-0.3,0.2-0.4c6.2-1.2,10.8-3.5,11.1-3.7c0,0,0,0,0,0c0.3-0.2,5.6-3.9,7.6-5
		c2.1-1.1,5.2-3,7.3-6.9c2.1-3.8,8-4.7,8.4-4.8c0,0,0,0,0,0c10.8-3.3,12-12.2,12.1-13.2c0-0.1,0-0.1,0.1-0.2
		c2.4-1.7,4.4-8.9,4.5-9.5c0,0,0,0,0-0.1c0-0.4-0.4-4.5-0.7-5.7c-0.3-0.9,1.4-2.9,2.2-3.8c0.2-0.2,0.5-0.1,0.4,0.2
		c0-0.1,0-0.3,0-0.4c0-0.2-1.2-9.8-1.2-10.1c0,0,0,0,0,0c0-8-2.7-10.8-4.5-10.8c-1.6,0-5.3,3-5.8,3.5c0,0-0.1,0.1-0.2,0.1h-1
		c0-1.2-0.4-2.3-4.8-0.7c-4.4,1.6-27.9,28.6-28.5,29.2c0,0,0,0,0,0c-6.1,4.8-15.3,24.4-15.3,24.4l0.9-3.5c0,0,0,0,0,0l0.9-8.5
		c0,0,0.5-7.8,1.8-10c1.2-2.1,10-19.9,10.4-20.9c0,0,0-0.1,0-0.1c0-0.6,0.4-6.3-0.5-7.4c-0.9-1.1,1.1-5.5,1.4-6c0,0,0-0.1,0-0.1
		c-0.2-1.8,0.5-2.8,0.7-3.1c0,0,0-0.1,0.1-0.1c0-0.6,0.3-4.9-0.5-6.5c-0.8-1.7-0.5-2.8-1.2-3.3c-0.7-0.4-0.2-2.3-0.1-2.6
		c0,0,0,0,0-0.1c0-0.5,0.1-8.3-0.5-9c-0.6-0.7-2.4-4.3-2.6-5.6c-0.2-1.3-0.5-5.6-3.4-4.3c-3,1.3-4.5,6.4-4.5,6.4l-0.8-0.1
		c-1-3.2-2.6-3.6-3-3.7c0,0-0.1,0-0.1,0c-4.5,1.9-11.3,42.6-11.3,43c0,0,0,0,0,0c0,0.4-2.8,31.2-1.4,38.8c0.9,5,0.9,6.6,0.7,7.2
		c0,0.2-0.3,0.2-0.4,0.1c-6.4-4.3-8.2-12.5-8.7-13.9c-0.5-1.4-0.2-3.6-0.2-3.6l0.9-4.7c0,0,0-0.1,0.1-0.1c2.4-2.8-0.4-4.9,0-7.3
		c0.3-2.2-4-7.4-4.6-8.1c0-0.1-0.1-0.1-0.1-0.2c0.1-0.9,0.8-6.6-0.5-8.4c-1.3-1.8-6.7-4.8-7.2-5.1c0,0-0.1,0-0.1,0
		c-0.9,0-10.6,0.1-10.4,2.8c0.1,2-1.1,4.5-1.4,5c-0.3,0.3-0.6,0.4-1.1,0.6c-9.7,4.1-10.1,8.7-10.2,9.1c0,0,0,0,0,0l-1.6,6
		c0,0,0,0.1-0.1,0.1c-2.6,2.7,0.1,8.7,0.5,9.6c0,0.1,0.1,0.1,0.2,0.1c5.6,1.1,6.8,6.6,6.9,7.1c0,0,0,0,0,0.1l-0.2,3.5
		c0,0.1,0.1,0.3,0.2,0.3l3.2,0.1c0.1,0,0.2,0.1,0.2,0.2l0.5,1.8c0,0.1,0.1,0.2,0.2,0.2l2,0.6c1.9,0.5,3.5,3.5,3.8,4.1
		c0,0.1,0.1,0.1,0.2,0.1h4.4c0.1,0,0.1,0,0.2-0.1c0.5-0.4,3.3-2.4,4.8-2c1.6,0.5,4.3,10.4,4.5,11c0,0,0,0,0,0.1l-0.1,7.5
		c0,0.1-0.1,0.2-0.3,0.2c-0.3,0-0.9,0.2-1.4,1.3c-0.8,1.6-2.5,16.9-2.7,18.5c0,0.1,0,0.2,0.1,0.2c0.8,0.6,5.3,4.4,10.2,11.8
		c5.3,8.2,3.7,15.3,3.7,15.3l-0.9,5.8c0,0,0,0.1-0.1,0.1c-0.3,0.4-2.3,2.5-4.6,0.8c-2.5-1.8-8-7.3-10.3-9.6
		c-2.2-2.2-14.7-11.2-15.5-11.7c0,0,0,0-0.1-0.1l-2.2-3.6c-0.1-0.1-0.1-0.1-0.2-0.1l-4,0.3c-0.1,0-0.1,0-0.2,0l-18.6-10.8
		c0,0-0.1,0-0.1,0l-6.6,0.2c0,0-0.1,0-0.1,0c-0.6,0.3-6.3,3.7-7.6,9.2c-1.4,5.6-1.4,24-1.4,25.5c0,0.1,0,0.1-0.1,0.2
		c-0.8,0.8-8.2,8.1-9.7,10.3c-1.6,2.3-22.6,21.3-22.9,21.5c0,0,0,0,0,0c-12.6,13.7-26.2,16.3-26.4,16.3c0,0,0,0,0,0
		c-8.7,1.1-11.8,2.1-12.1,2.2c0,0,0,0-0.1,0c-4,2.8-14.2,3.5-15.1,3.5c-0.1,0-0.1,0-0.1,0.1l-0.6,0.5c-0.1,0.1-0.1,0.2-0.1,0.3
		l0.3,1.3c0,0,0,0.1,0,0.1c2.2,3.4,5.5,3.5,6.4,3.4c-1.7,0.1-12.5,0.7,0.6,0c14.1-0.8,15.1,1.4,19.6,4.2c4.1,2.5,10.2,1.6,11.2,1.4
		c0.1,0,0.2-0.1,0.2-0.2c0.2-1,1.5-6.5,2.1-7.8c0.7-1.4,7.1-4.3,10-6.4c2.8-2.1,19.6-8.7,20.1-8.9c0,0,0,0,0,0
		c6-1.3,8.7-8.4,8.7-8.4c0.7-3.2,3.7-5,3.9-3.9c0.2,1.1,1.1,11.9,1.2,17.1c0.1,4.1-1.1,8.1-1.6,9.5c-0.3,0.4-0.7,1-1.1,1.7
		c-4.4,6.7-9.7,10.8-9.8,10.9c0,0,0,0,0,0c-6.7,6.1-8.8,6.4-9.2,6.4c0,0-0.1,0-0.1,0l-1.4,0.8c-1.4,0.9-0.9,2.8,0.5,3.2
		c1.4,0.3,8.3,0.7,9,0.7c0,0,0.1,0,0.1,0c16.7-7.3,27.2-11.7,27.4-14.6c0.2-2.7-3.5-8.9-3.9-9.6c0,0,0-0.1,0-0.1
		c0-0.7-0.1-7,1.6-14.9c1.7-8,4.2-12.4,4.4-12.8c0,0,0,0,0-0.1c1.2-4.6,3-3.5,3-3.5c7.3,3.1,12.7,2.3,13.6,2.2c0.1,0,0.2,0,0.2,0.1
		c2.5,2.4,5.6,11,5.6,11.1c0,0,0,0,0,0l1.1,3.5c0,0,0,0.1,0,0.1l-0.2,6.1c0,0.1,0,0.1,0.1,0.2c2,2.5,3,2.7,3.5,2.5
		c0.2-0.1,0.3,0,0.3,0.2c0,1.6,0.1,6.3,0.7-0.5c0.7-8,6.2-7.5,6.2-7.5s-4.3-0.9,0.9,0.2c5,1,11.2-0.3,11.6-0.4c0,0,0,0,0,0
		c13.2-0.7,14.4,2.7,26.3,3.6c11.9,0.9,13.5-14.2,13.7-15c0.2-0.7-0.4-26.9-1.8-27.8c-1.4-0.9-3.6-26.2-2.5-26.2
		c1.1,0,4.1,5.9,5.3,11.4c1.2,5.5,10.1,20.6,10.3,21c0,0,0,0,0,0c7.5,9.8,4.6,15.1,6.9,19.2c2.2,3.8,10.8,2.4,12,2.2
		c0.1,0,0.2-0.1,0.2-0.2l0.3-0.7c0-0.1,0.1-0.1,0.1-0.1l0.7-0.3c0.1,0,0.1,0,0.2,0c2.1,1.2,10,0.2,11.3,0c0.1,0,0.2-0.1,0.2-0.2
		l0.1-1.2c0-0.1-0.1-0.3-0.2-0.3l-1.2-0.1l0.5-0.9c0-0.1,0.1-0.1,0.2-0.1c0.7,0,4.1-0.1,10.5-1.1c5.9-0.9,6.7-2.8,6.8-3.5
		C273.6,188,273.5,187.8,273.3,187.8z"/>
	<path class="st0" d="M264.9,63.4c0,0.2,0,0.3,0,0.4C264.9,63.7,264.9,63.6,264.9,63.4z"/>
	<path class="st0" d="M264.9,63.8c0,0.1,0,0.1,0,0.2C264.9,63.9,264.9,63.9,264.9,63.8z"/>
</g>
</svg>
